<svg width="18" height="19" viewBox="0 0 18 19" fill="none" xmlns="http://www.w3.org/2000/svg">
<path fill-rule="evenodd" clip-rule="evenodd" d="M15.5359 4.81383C15.5128 4.53067 15.2723 4.31601 14.981 4.31601H13.324C13.3194 1.93649 11.3588 0 8.94974 0C6.54066 0 4.5801 1.93649 4.57548 4.31601H2.91846C2.63178 4.31601 2.39133 4.53067 2.36359 4.81383L0.928711 18.2092C0.888792 18.5819 1.18031 18.9071 1.5551 18.908L16.4111 18.9456C16.7884 18.9465 17.0823 18.6186 17.0403 18.2437L15.5359 4.81383ZM8.96518 1.16809C10.7639 1.16809 12.0697 2.53936 12.0743 4.31601H5.85602C5.86064 2.53936 7.16646 1.16809 8.96518 1.16809ZM3.52234 5.59863L2.32135 17.6355H15.6555L14.36 5.59863H13.324V7.33493C13.324 7.63636 13.0327 7.88299 12.7275 7.88299C12.4223 7.88299 12.1075 7.63636 12.1075 7.33493V5.59863H5.81159V7.33493C5.81159 7.63636 5.48939 7.88299 5.18421 7.88299C4.87903 7.88299 4.57548 7.63636 4.57548 7.33493V5.59863H3.52234Z" fill="#2F2626"/>
</svg>
